0000  1b 00 b8 86 f6 85 ff ff ff ff 00 00 00 00 09 00   ................
0010  00 01 00 03 00 01 01 40 00 00 00 8a 00 00 00 00   .......@........
0020  00 00 00 00 00 00 00 00 00 00 00 00 00 00 00 00   ................
0030  00 00 00 00 00 00 00 00 00 00 00 00 00 00 00 00   ................
0040  00 00 00 00 00 00 00 00 00 00 00 00 00 00 00 00   ................
0050  00 00 00 00 00 00 00 00 00 00 00                  ...........

0000  1b 00 f8 0b f2 85 ff ff ff ff 00 00 00 00 09 00   ................
0010  01 01 00 03 00 81 01 40 00 00 00 30 30 30 31 50   .......@...0001P
0020  4c 45 4e 4f 4d 30 30 30 30 30 31 30 30 30 30 30   LENOM00000100000
0030  30 30 31 44 41 53 41 4e 30 30 30 32 30 31 31 30   001DASAN00020110
0040  38 31 37 30 30 30 30 30 30 30 30 30 30 30 30 30   8170000000000000
0050  30 30 30 30 30 30 30 30 30 30 30                  00000000000

0000  1b 00 b8 86 f6 85 ff ff ff ff 00 00 00 00 09 00   ................
0010  00 01 00 03 00 01 01 40 00 00 00 8a 00 00 00 00   .......@........
0020  00 00 00 00 00 00 00 00 00 00 00 00 00 00 00 00   ................
0030  00 00 00 00 00 00 00 00 00 00 00 00 00 00 00 00   ................
0040  00 00 00 00 00 00 00 00 00 00 00 00 00 00 00 00   ................
0050  00 00 00 00 00 00 00 00 00 00 00                  ...........

0000  1b 00 88 5a ed 85 ff ff ff ff 00 00 00 00 09 00   ...Z............
0010  01 01 00 03 00 81 01 40 00 00 00 30 30 30 31 50   .......@...0001P
0020  4c 45 4e 4f 4d 30 30 30 30 30 31 30 30 30 30 30   LENOM00000100000
0030  30 30 31 44 41 53 41 4e 30 30 30 32 30 31 31 30   001DASAN00020110
0040  38 31 37 30 30 30 30 30 30 30 30 30 30 30 30 30   8170000000000000
0050  30 30 30 30 30 30 30 30 30 30 30                  00000000000

0000  1b 00 a8 b4 f9 85 ff ff ff ff 00 00 00 00 09 00   ................
0010  00 01 00 03 00 01 01 40 00 00 00 8a 00 00 00 00   .......@........
0020  00 00 00 00 00 00 00 00 00 00 00 00 00 00 00 00   ................
0030  00 00 00 00 00 00 00 00 00 00 00 00 00 00 00 00   ................
0040  00 00 00 00 00 00 00 00 00 00 00 00 00 00 00 00   ................
0050  00 00 00 00 00 00 00 00 00 00 00                  ...........

0000  1b 00 c0 f3 fc 85 ff ff ff ff 00 00 00 00 09 00   ................
0010  00 01 00 03 00 01 01 40 00 00 00 00 00 00 00 00   .......@........
0020  01 00 80 00 00 00 00 00 00 00 00 00 00 00 00 00   ................
0030  00 00 00 00 00 00 00 00 00 00 00 00 00 00 00 00   ................
0040  00 00 00 00 00 00 00 00 00 00 00 00 00 00 00 00   ................
0050  00 00 00 00 00 00 00 00 00 00 00                  ...........

0000  1b 00 f8 0b f2 85 ff ff ff ff 00 00 00 00 09 00   ................
0010  01 01 00 03 00 81 01 40 00 00 00 30 30 30 31 50   .......@...0001P
0020  4c 45 4e 4f 4d 30 30 30 30 30 31 30 30 30 30 30   LENOM00000100000
0030  30 30 31 44 41 53 41 4e 30 30 30 32 30 31 31 30   001DASAN00020110
0040  38 31 37 30 30 30 30 30 30 30 30 30 30 30 30 30   8170000000000000
0050  30 30 30 30 30 30 30 30 30 30 30                  00000000000

0000  1b 00 70 ce 04 86 ff ff ff ff 00 00 00 00 09 00   ..p.............
0010  00 01 00 03 00 01 01 40 00 00 00 8a 00 00 00 00   .......@........
0020  00 00 00 00 00 00 00 00 00 00 00 00 00 00 00 00   ................
0030  00 00 00 00 00 00 00 00 00 00 00 00 00 00 00 00   ................
0040  00 00 00 00 00 00 00 00 00 00 00 00 00 00 00 00   ................
0050  00 00 00 00 00 00 00 00 00 00 00                  ...........

0000  1b 00 88 5a ed 85 ff ff ff ff 00 00 00 00 09 00   ...Z............
0010  01 01 00 03 00 81 01 40 00 00 00 30 30 30 31 50   .......@...0001P
0020  4c 45 4e 4f 4d 30 30 30 30 30 31 30 30 30 30 30   LENOM00000100000
0030  30 30 31 44 41 53 41 4e 30 30 30 32 30 31 31 30   001DASAN00020110
0040  38 31 37 30 30 30 30 30 30 30 30 30 30 30 30 30   8170000000000000
0050  30 30 30 30 30 30 30 30 30 30 30                  00000000000

0000  1b 00 f8 0b f2 85 ff ff ff ff 00 00 00 00 09 00   ................
0010  01 01 00 03 00 81 01 40 00 00 00 30 30 30 31 50   .......@...0001P
0020  4c 45 4e 4f 4d 30 30 30 30 30 31 30 30 30 30 30   LENOM00000100000
0030  30 30 31 44 41 53 41 4e 30 30 30 32 30 31 31 30   001DASAN00020110
0040  38 31 37 30 30 30 30 30 30 30 30 30 30 30 30 30   8170000000000000
0050  30 30 30 30 30 30 30 30 30 30 30                  00000000000

0000  1b 00 c0 f3 fc 85 ff ff ff ff 00 00 00 00 09 00   ................
0010  00 01 00 03 00 01 01 40 00 00 00 00 00 00 1e 00   .......@........
0020  01 00 80 00 00 00 00 00 00 00 00 00 00 00 00 00   ................
0030  00 00 00 00 00 00 00 00 00 00 00 00 00 00 00 00   ................
0040  00 00 00 00 00 00 00 00 00 00 00 00 00 00 00 00   ................
0050  00 00 00 00 00 00 00 00 00 00 00                  ...........

0000  1b 00 88 5a ed 85 ff ff ff ff 00 00 00 00 09 00   ...Z............
0010  01 01 00 03 00 81 01 40 00 00 00 30 30 30 31 50   .......@...0001P
0020  4c 45 4e 4f 4d 30 30 30 30 30 31 30 30 30 30 30   LENOM00000100000
0030  30 30 31 44 41 53 41 4e 30 30 30 32 30 31 31 30   001DASAN00020110
0040  38 31 37 30 30 30 30 30 30 30 30 30 30 30 30 30   8170000000000000
0050  30 30 30 30 30 30 30 30 30 30 30                  00000000000

0000  1b 00 c0 f3 fc 85 ff ff ff ff 00 00 00 00 09 00   ................
0010  00 01 00 03 00 01 01 40 00 00 00 00 00 12 10 00   .......@........
0020  01 00 80 00 00 00 00 00 00 00 00 00 00 00 00 00   ................
0030  00 00 00 00 00 00 00 00 00 00 00 00 00 00 00 00   ................
0040  00 00 00 00 00 00 00 00 00 00 00 00 00 00 00 00   ................
0050  00 00 00 00 00 00 00 00 00 00 00                  ...........

0000  1b 00 f8 0b f2 85 ff ff ff ff 00 00 00 00 09 00   ................
0010  01 01 00 03 00 81 01 40 00 00 00 30 30 30 31 50   .......@...0001P
0020  4c 45 4e 4f 4d 30 30 30 30 30 31 30 30 30 30 30   LENOM00000100000
0030  30 30 31 44 41 53 41 4e 30 30 30 32 30 31 31 30   001DASAN00020110
0040  38 31 37 30 30 30 30 30 30 30 30 30 30 30 30 30   8170000000000000
0050  30 30 30 30 30 30 30 30 30 30 30                  00000000000

0000  1b 00 c0 f3 fc 85 ff ff ff ff 00 00 00 00 09 00   ................
0010  00 01 00 03 00 01 01 40 00 00 00 00 00 32 00 00   .......@.....2..
0020  01 00 80 00 00 00 00 00 00 00 00 00 00 00 00 00   ................
0030  00 00 00 00 00 00 00 00 00 00 00 00 00 00 00 00   ................
0040  00 00 00 00 00 00 00 00 00 00 00 00 00 00 00 00   ................
0050  00 00 00 00 00 00 00 00 00 00 00                  ...........

0000  1b 00 88 5a ed 85 ff ff ff ff 00 00 00 00 09 00   ...Z............
0010  01 01 00 03 00 81 01 40 00 00 00 30 30 30 31 50   .......@...0001P
0020  4c 45 4e 4f 4d 30 30 30 30 30 31 30 30 30 30 30   LENOM00000100000
0030  30 30 31 44 41 53 41 4e 30 30 30 32 30 31 31 30   001DASAN00020110
0040  38 31 37 30 30 30 30 30 30 30 30 30 30 30 30 30   8170000000000000
0050  30 30 30 30 30 30 30 30 30 30 30                  00000000000

0000  1b 00 c0 f3 fc 85 ff ff ff ff 00 00 00 00 09 00   ................
0010  00 01 00 03 00 01 01 40 00 00 00 00 00 00 00 00   .......@........
0020  01 00 80 00 00 00 00 00 00 00 00 00 00 00 00 00   ................
0030  00 00 00 00 00 00 00 00 00 00 00 00 00 00 00 00   ................
0040  00 00 00 00 00 00 00 00 00 00 00 00 00 00 00 00   ................
0050  00 00 00 00 00 00 00 00 00 00 00                  ...........

0000  1b 00 f8 0b f2 85 ff ff ff ff 00 00 00 00 09 00   ................
0010  01 01 00 03 00 81 01 40 00 00 00 30 30 30 31 50   .......@...0001P
0020  4c 45 4e 4f 4d 30 30 30 30 30 31 30 30 30 30 30   LENOM00000100000
0030  30 30 31 44 41 53 41 4e 30 30 30 32 30 31 31 30   001DASAN00020110
0040  38 31 37 30 30 30 30 30 30 30 30 30 30 30 30 30   8170000000000000
0050  30 30 30 30 30 30 30 30 30 30 30                  00000000000

0000  1b 00 a8 b4 f9 85 ff ff ff ff 00 00 00 00 09 00   ................
0010  00 01 00 03 00 01 01 40 00 00 00 00 00 00 00 00   .......@........
0020  01 00 80 00 00 00 00 00 00 00 00 00 00 00 00 00   ................
0030  00 00 00 00 00 00 00 00 00 00 00 00 00 00 00 00   ................
0040  00 00 00 00 00 00 00 00 00 00 00 00 00 00 00 00   ................
0050  00 00 00 00 00 00 00 00 00 00 00                  ...........

0000  1b 00 88 5a ed 85 ff ff ff ff 00 00 00 00 09 00   ...Z............
0010  01 01 00 03 00 81 01 40 00 00 00 30 30 30 31 50   .......@...0001P
0020  4c 45 4e 4f 4d 30 30 30 30 30 31 30 30 30 30 30   LENOM00000100000
0030  30 30 31 44 41 53 41 4e 30 30 30 32 30 31 31 30   001DASAN00020110
0040  38 31 37 30 30 30 30 30 30 30 30 30 30 30 30 30   8170000000000000
0050  30 30 30 30 30 30 30 30 30 30 30                  00000000000

0000  1b 00 68 ec 08 86 ff ff ff ff 00 00 00 00 09 00   ..h.............
0010  00 01 00 03 00 01 01 40 00 00 00 8a 00 00 00 00   .......@........
0020  00 00 00 00 00 00 00 00 00 00 00 00 00 00 00 00   ................
0030  00 00 00 00 00 00 00 00 00 00 00 00 00 00 00 00   ................
0040  00 00 00 00 00 00 00 00 00 00 00 00 00 00 00 00   ................
0050  00 00 00 00 00 00 00 00 00 00 00                  ...........

0000  1b 00 68 ec 08 86 ff ff ff ff 00 00 00 00 09 00   ..h.............
0010  00 01 00 03 00 01 01 40 00 00 00 8a 00 00 00 00   .......@........
0020  00 00 00 00 00 00 00 00 00 00 00 00 00 00 00 00   ................
0030  00 00 00 00 00 00 00 00 00 00 00 00 00 00 00 00   ................
0040  00 00 00 00 00 00 00 00 00 00 00 00 00 00 00 00   ................
0050  00 00 00 00 00 00 00 00 00 00 00                  ...........

0000  1b 00 f8 0b f2 85 ff ff ff ff 00 00 00 00 09 00   ................
0010  01 01 00 03 00 81 01 40 00 00 00 30 30 30 31 50   .......@...0001P
0020  4c 45 4e 4f 4d 30 30 30 30 30 31 30 30 30 30 30   LENOM00000100000
0030  30 30 31 44 41 53 41 4e 30 30 30 32 30 31 31 30   001DASAN00020110
0040  38 31 37 30 30 30 30 30 30 30 30 30 30 30 30 30   8170000000000000
0050  30 30 30 30 30 30 30 30 30 30 30                  00000000000

0000  1b 00 88 5a ed 85 ff ff ff ff 00 00 00 00 09 00   ...Z............
0010  01 01 00 03 00 81 01 40 00 00 00 30 30 30 31 50   .......@...0001P
0020  4c 45 4e 4f 4d 30 30 30 30 30 31 30 30 30 30 30   LENOM00000100000
0030  30 30 31 44 41 53 41 4e 30 30 30 32 30 31 31 30   001DASAN00020110
0040  38 31 37 30 30 30 30 30 30 30 30 30 30 30 30 30   8170000000000000
0050  30 30 30 30 30 30 30 30 30 30 30                  00000000000

0000  1b 00 c0 f3 fc 85 ff ff ff ff 00 00 00 00 09 00   ................
0010  00 01 00 03 00 01 01 40 00 00 00 8a 00 00 00 00   .......@........
0020  00 00 00 00 00 00 00 00 00 00 00 00 00 00 00 00   ................
0030  00 00 00 00 00 00 00 00 00 00 00 00 00 00 00 00   ................
0040  00 00 00 00 00 00 00 00 00 00 00 00 00 00 00 00   ................
0050  00 00 00 00 00 00 00 00 00 00 00                  ...........

0000  1b 00 c0 f3 fc 85 ff ff ff ff 00 00 00 00 09 00   ................
0010  00 01 00 03 00 01 01 40 00 00 00 8a 00 00 00 00   .......@........
0020  00 00 00 00 00 00 00 00 00 00 00 00 00 00 00 00   ................
0030  00 00 00 00 00 00 00 00 00 00 00 00 00 00 00 00   ................
0040  00 00 00 00 00 00 00 00 00 00 00 00 00 00 00 00   ................
0050  00 00 00 00 00 00 00 00 00 00 00                  ...........

0000  1b 00 f8 0b f2 85 ff ff ff ff 00 00 00 00 09 00   ................
0010  01 01 00 03 00 81 01 40 00 00 00 30 30 30 31 50   .......@...0001P
0020  4c 45 4e 4f 4d 30 30 30 30 30 31 30 30 30 30 30   LENOM00000100000
0030  30 30 31 44 41 53 41 4e 30 30 30 32 30 31 31 30   001DASAN00020110
0040  38 31 37 30 30 30 30 30 30 30 30 30 30 30 30 30   8170000000000000
0050  30 30 30 30 30 30 30 30 30 30 30                  00000000000

0000  1b 00 88 5a ed 85 ff ff ff ff 00 00 00 00 09 00   ...Z............
0010  01 01 00 03 00 81 01 40 00 00 00 30 30 30 31 50   .......@...0001P
0020  4c 45 4e 4f 4d 30 30 30 30 30 31 30 30 30 30 30   LENOM00000100000
0030  30 30 31 44 41 53 41 4e 30 30 30 32 30 31 31 30   001DASAN00020110
0040  38 31 37 30 30 30 30 30 30 30 30 30 30 30 30 30   8170000000000000
0050  30 30 30 30 30 30 30 30 30 30 30                  00000000000

0000  1b 00 70 ec f9 85 ff ff ff ff 00 00 00 00 09 00   ..p.............
0010  00 01 00 03 00 01 01 40 00 00 00 8a 00 00 00 00   .......@........
0020  00 00 00 00 00 00 00 00 00 00 00 00 00 00 00 00   ................
0030  00 00 00 00 00 00 00 00 00 00 00 00 00 00 00 00   ................
0040  00 00 00 00 00 00 00 00 00 00 00 00 00 00 00 00   ................
0050  00 00 00 00 00 00 00 00 00 00 00                  ...........

0000  1b 00 70 ec f9 85 ff ff ff ff 00 00 00 00 09 00   ..p.............
0010  00 01 00 03 00 01 01 40 00 00 00 8a 00 00 00 00   .......@........
0020  00 00 00 00 00 00 00 00 00 00 00 00 00 00 00 00   ................
0030  00 00 00 00 00 00 00 00 00 00 00 00 00 00 00 00   ................
0040  00 00 00 00 00 00 00 00 00 00 00 00 00 00 00 00   ................
0050  00 00 00 00 00 00 00 00 00 00 00                  ...........

0000  1b 00 f8 0b f2 85 ff ff ff ff 00 00 00 00 09 00   ................
0010  01 01 00 03 00 81 01 40 00 00 00 30 30 30 31 50   .......@...0001P
0020  4c 45 4e 4f 4d 30 30 30 30 30 31 30 30 30 30 30   LENOM00000100000
0030  30 30 31 44 41 53 41 4e 30 30 30 32 30 31 31 30   001DASAN00020110
0040  38 31 37 30 30 30 30 30 30 30 30 30 30 30 30 30   8170000000000000
0050  30 30 30 30 30 30 30 30 30 30 30                  00000000000

0000  1b 00 88 5a ed 85 ff ff ff ff 00 00 00 00 09 00   ...Z............
0010  01 01 00 03 00 81 01 40 00 00 00 30 30 30 31 50   .......@...0001P
0020  4c 45 4e 4f 4d 30 30 30 30 30 31 30 30 30 30 30   LENOM00000100000
0030  30 30 31 44 41 53 41 4e 30 30 30 32 30 31 31 30   001DASAN00020110
0040  38 31 37 30 30 30 30 30 30 30 30 30 30 30 30 30   8170000000000000
0050  30 30 30 30 30 30 30 30 30 30 30                  00000000000

0000  1b 00 68 ec 08 86 ff ff ff ff 00 00 00 00 09 00   ..h.............
0010  00 01 00 03 00 01 01 40 00 00 00 01 78 00 00 64   .......@....x..d
0020  05 03 ae 01 00 28 00 00 01 00 80 00 00 00 00 00   .....(..........
0030  00 00 00 00 00 00 00 00 00 00 00 00 00 00 00 00   ................
0040  00 00 00 00 00 00 00 00 00 00 00 00 00 00 00 00   ................
0050  00 00 00 00 00 00 00 00 00 00 00                  ...........

0000  1b 00 f8 0b f2 85 ff ff ff ff 00 00 00 00 09 00   ................
0010  01 01 00 03 00 81 01 40 00 00 00 30 30 30 31 50   .......@...0001P
0020  4c 45 4e 4f 4d 30 30 30 30 30 31 30 30 30 30 30   LENOM00000100000
0030  30 30 31 44 41 53 41 4e 30 30 30 32 30 31 31 30   001DASAN00020110
0040  38 31 37 30 30 30 30 30 30 30 30 30 30 30 30 30   8170000000000000
0050  30 30 30 30 30 30 30 30 30 30 30                  00000000000

0000  1b 00 c0 f3 fc 85 ff ff ff ff 00 00 00 00 09 00   ................
0010  00 01 00 03 00 01 01 40 00 00 00 00 00 00 00 00   .......@........
0020  01 00 80 00 00 00 00 00 00 00 00 00 00 00 00 00   ................
0030  00 00 00 00 00 00 00 00 00 00 00 00 00 00 00 00   ................
0040  00 00 00 00 00 00 00 00 00 00 00 00 00 00 00 00   ................
0050  00 00 00 00 00 00 00 00 00 00 00                  ...........

0000  1b 00 88 5a ed 85 ff ff ff ff 00 00 00 00 09 00   ...Z............
0010  01 01 00 03 00 81 01 40 00 00 00 30 30 30 31 50   .......@...0001P
0020  4c 45 4e 4f 4d 30 30 30 30 30 31 30 30 30 30 30   LENOM00000100000
0030  30 30 31 44 41 53 41 4e 30 30 30 32 30 31 31 30   001DASAN00020110
0040  38 31 37 30 30 30 30 30 30 30 30 30 30 30 30 30   8170000000000000
0050  30 30 30 30 30 30 30 30 30 30 30                  00000000000

0000  1b 00 c0 f3 fc 85 ff ff ff ff 00 00 00 00 09 00   ................
0010  00 01 00 03 00 01 01 40 00 00 00 8a 00 00 00 00   .......@........
0020  00 00 00 00 00 00 00 00 00 00 00 00 00 00 00 00   ................
0030  00 00 00 00 00 00 00 00 00 00 00 00 00 00 00 00   ................
0040  00 00 00 00 00 00 00 00 00 00 00 00 00 00 00 00   ................
0050  00 00 00 00 00 00 00 00 00 00 00                  ...........

0000  1b 00 c0 f3 fc 85 ff ff ff ff 00 00 00 00 09 00   ................
0010  00 01 00 03 00 01 01 40 00 00 00 8a 00 00 00 00   .......@........
0020  00 00 00 00 00 00 00 00 00 00 00 00 00 00 00 00   ................
0030  00 00 00 00 00 00 00 00 00 00 00 00 00 00 00 00   ................
0040  00 00 00 00 00 00 00 00 00 00 00 00 00 00 00 00   ................
0050  00 00 00 00 00 00 00 00 00 00 00                  ...........

0000  1b 00 f8 0b f2 85 ff ff ff ff 00 00 00 00 09 00   ................
0010  01 01 00 03 00 81 01 40 00 00 00 30 30 30 31 50   .......@...0001P
0020  4c 45 4e 4f 4d 30 30 30 30 30 31 30 30 30 30 30   LENOM00000100000
0030  30 30 31 44 41 53 41 4e 30 30 30 32 30 31 31 30   001DASAN00020110
0040  38 31 37 30 30 30 30 30 30 30 30 30 30 30 30 30   8170000000000000
0050  30 30 30 30 30 30 30 30 30 30 30                  00000000000

0000  1b 00 88 5a ed 85 ff ff ff ff 00 00 00 00 09 00   ...Z............
0010  01 01 00 03 00 81 01 40 00 00 00 30 30 30 31 50   .......@...0001P
0020  4c 45 4e 4f 4d 30 30 30 30 30 31 30 30 30 30 30   LENOM00000100000
0030  30 30 31 44 41 53 41 4e 30 30 30 32 30 31 31 30   001DASAN00020110
0040  38 31 37 30 30 30 30 30 30 30 30 30 30 30 30 30   8170000000000000
0050  30 30 30 30 30 30 30 30 30 30 30                  00000000000

0000  1b 00 70 ec f9 85 ff ff ff ff 00 00 00 00 09 00   ..p.............
0010  00 01 00 03 00 01 01 40 00 00 00 8a 00 00 00 00   .......@........
0020  00 00 00 00 00 00 00 00 00 00 00 00 00 00 00 00   ................
0030  00 00 00 00 00 00 00 00 00 00 00 00 00 00 00 00   ................
0040  00 00 00 00 00 00 00 00 00 00 00 00 00 00 00 00   ................
0050  00 00 00 00 00 00 00 00 00 00 00                  ...........

0000  1b 00 70 ec f9 85 ff ff ff ff 00 00 00 00 09 00   ..p.............
0010  00 01 00 03 00 01 01 40 00 00 00 8a 00 00 00 00   .......@........
0020  00 00 00 00 00 00 00 00 00 00 00 00 00 00 00 00   ................
0030  00 00 00 00 00 00 00 00 00 00 00 00 00 00 00 00   ................
0040  00 00 00 00 00 00 00 00 00 00 00 00 00 00 00 00   ................
0050  00 00 00 00 00 00 00 00 00 00 00                  ...........

0000  1b 00 f8 0b f2 85 ff ff ff ff 00 00 00 00 09 00   ................
0010  01 01 00 03 00 81 01 40 00 00 00 30 30 30 31 50   .......@...0001P
0020  4c 45 4e 4f 4d 30 30 30 30 30 31 30 30 30 30 30   LENOM00000100000
0030  30 30 31 44 41 53 41 4e 30 30 30 32 30 31 31 30   001DASAN00020110
0040  38 31 37 30 30 30 30 30 30 30 30 30 30 30 30 30   8170000000000000
0050  30 30 30 30 30 30 30 30 30 30 30                  00000000000

0000  1b 00 88 5a ed 85 ff ff ff ff 00 00 00 00 09 00   ...Z............
0010  01 01 00 03 00 81 01 40 00 00 00 30 30 30 31 50   .......@...0001P
0020  4c 45 4e 4f 4d 30 30 30 30 30 31 30 30 30 30 30   LENOM00000100000
0030  30 30 31 44 41 53 41 4e 30 30 30 32 30 31 31 30   001DASAN00020110
0040  38 31 37 30 30 30 30 30 30 30 30 30 30 30 30 30   8170000000000000
0050  30 30 30 30 30 30 30 30 30 30 30                  00000000000

0000  1b 00 70 ec f9 85 ff ff ff ff 00 00 00 00 09 00   ..p.............
0010  00 01 00 03 00 01 01 40 00 00 00 8a 00 00 00 00   .......@........
0020  00 00 00 00 00 00 00 00 00 00 00 00 00 00 00 00   ................
0030  00 00 00 00 00 00 00 00 00 00 00 00 00 00 00 00   ................
0040  00 00 00 00 00 00 00 00 00 00 00 00 00 00 00 00   ................
0050  00 00 00 00 00 00 00 00 00 00 00                  ...........

0000  1b 00 70 ec f9 85 ff ff ff ff 00 00 00 00 09 00   ..p.............
0010  00 01 00 03 00 01 01 40 00 00 00 8a 00 00 00 00   .......@........
0020  00 00 00 00 00 00 00 00 00 00 00 00 00 00 00 00   ................
0030  00 00 00 00 00 00 00 00 00 00 00 00 00 00 00 00   ................
0040  00 00 00 00 00 00 00 00 00 00 00 00 00 00 00 00   ................
0050  00 00 00 00 00 00 00 00 00 00 00                  ...........

0000  1b 00 f8 0b f2 85 ff ff ff ff 00 00 00 00 09 00   ................
0010  01 01 00 03 00 81 01 40 00 00 00 30 30 30 31 50   .......@...0001P
0020  4c 45 4e 4f 4d 30 30 30 30 30 31 30 30 30 30 30   LENOM00000100000
0030  30 30 31 44 41 53 41 4e 30 30 30 32 30 31 31 30   001DASAN00020110
0040  38 31 37 30 30 30 30 30 30 30 30 30 30 30 30 30   8170000000000000
0050  30 30 30 30 30 30 30 30 30 30 30                  00000000000

0000  1b 00 88 5a ed 85 ff ff ff ff 00 00 00 00 09 00   ...Z............
0010  01 01 00 03 00 81 01 40 00 00 00 30 30 30 31 50   .......@...0001P
0020  4c 45 4e 4f 4d 30 30 30 30 30 31 30 30 30 30 30   LENOM00000100000
0030  30 30 31 44 41 53 41 4e 30 30 30 32 30 31 31 30   001DASAN00020110
0040  38 31 37 30 30 30 30 30 30 30 30 30 30 30 30 30   8170000000000000
0050  30 30 30 30 30 30 30 30 30 30 30                  00000000000

0000  1b 00 a8 b4 f9 85 ff ff ff ff 00 00 00 00 09 00   ................
0010  00 01 00 03 00 01 01 40 00 00 00 8a 00 00 00 00   .......@........
0020  00 00 00 00 00 00 00 00 00 00 00 00 00 00 00 00   ................
0030  00 00 00 00 00 00 00 00 00 00 00 00 00 00 00 00   ................
0040  00 00 00 00 00 00 00 00 00 00 00 00 00 00 00 00   ................
0050  00 00 00 00 00 00 00 00 00 00 00                  ...........

0000  1b 00 a8 b4 f9 85 ff ff ff ff 00 00 00 00 09 00   ................
0010  00 01 00 03 00 01 01 40 00 00 00 8a 00 00 00 00   .......@........
0020  00 00 00 00 00 00 00 00 00 00 00 00 00 00 00 00   ................
0030  00 00 00 00 00 00 00 00 00 00 00 00 00 00 00 00   ................
0040  00 00 00 00 00 00 00 00 00 00 00 00 00 00 00 00   ................
0050  00 00 00 00 00 00 00 00 00 00 00                  ...........

0000  1b 00 f8 0b f2 85 ff ff ff ff 00 00 00 00 09 00   ................
0010  01 01 00 03 00 81 01 40 00 00 00 30 30 30 31 50   .......@...0001P
0020  4c 45 4e 4f 4d 30 30 30 30 30 31 30 30 30 30 30   LENOM00000100000
0030  30 30 31 44 41 53 41 4e 30 30 30 32 30 31 31 30   001DASAN00020110
0040  38 31 37 30 30 30 30 30 30 30 30 30 30 30 30 30   8170000000000000
0050  30 30 30 30 30 30 30 30 30 30 30                  00000000000

0000  1b 00 88 5a ed 85 ff ff ff ff 00 00 00 00 09 00   ...Z............
0010  01 01 00 03 00 81 01 40 00 00 00 30 30 30 31 50   .......@...0001P
0020  4c 45 4e 4f 4d 30 30 30 30 30 31 30 30 30 30 30   LENOM00000100000
0030  30 30 31 44 41 53 41 4e 30 30 30 32 30 31 31 30   001DASAN00020110
0040  38 31 37 30 30 30 30 30 30 30 30 30 30 30 30 30   8170000000000000
0050  30 30 30 30 30 30 30 30 30 30 30                  00000000000

0000  1b 00 70 ec f9 85 ff ff ff ff 00 00 00 00 09 00   ..p.............
0010  00 01 00 03 00 01 01 40 00 00 00 8a 00 00 00 00   .......@........
0020  00 00 00 00 00 00 00 00 00 00 00 00 00 00 00 00   ................
0030  00 00 00 00 00 00 00 00 00 00 00 00 00 00 00 00   ................
0040  00 00 00 00 00 00 00 00 00 00 00 00 00 00 00 00   ................
0050  00 00 00 00 00 00 00 00 00 00 00                  ...........

0000  1b 00 70 ec f9 85 ff ff ff ff 00 00 00 00 09 00   ..p.............
0010  00 01 00 03 00 01 01 40 00 00 00 8a 00 00 00 00   .......@........
0020  00 00 00 00 00 00 00 00 00 00 00 00 00 00 00 00   ................
0030  00 00 00 00 00 00 00 00 00 00 00 00 00 00 00 00   ................
0040  00 00 00 00 00 00 00 00 00 00 00 00 00 00 00 00   ................
0050  00 00 00 00 00 00 00 00 00 00 00                  ...........

0000  1b 00 f8 0b f2 85 ff ff ff ff 00 00 00 00 09 00   ................
0010  01 01 00 03 00 81 01 40 00 00 00 30 30 30 31 50   .......@...0001P
0020  4c 45 4e 4f 4d 30 30 30 30 30 31 30 30 30 30 30   LENOM00000100000
0030  30 30 31 44 41 53 41 4e 30 30 30 32 30 31 31 30   001DASAN00020110
0040  38 31 37 30 30 30 30 30 30 30 30 30 30 30 30 30   8170000000000000
0050  30 30 30 30 30 30 30 30 30 30 30                  00000000000

0000  1b 00 88 5a ed 85 ff ff ff ff 00 00 00 00 09 00   ...Z............
0010  01 01 00 03 00 81 01 40 00 00 00 30 30 30 31 50   .......@...0001P
0020  4c 45 4e 4f 4d 30 30 30 30 30 31 30 30 30 30 30   LENOM00000100000
0030  30 30 31 44 41 53 41 4e 30 30 30 32 30 31 31 30   001DASAN00020110
0040  38 31 37 30 30 30 30 30 30 30 30 30 30 30 30 30   8170000000000000
0050  30 30 30 30 30 30 30 30 30 30 30                  00000000000

0000  1b 00 70 ce 04 86 ff ff ff ff 00 00 00 00 09 00   ..p.............
0010  00 01 00 03 00 01 01 40 00 00 00 01 78 00 00 64   .......@....x..d
0020  05 03 8e 01 00 28 00 00 01 00 80 00 00 00 00 00   .....(..........
0030  00 00 00 00 00 00 00 00 00 00 00 00 00 00 00 00   ................
0040  00 00 00 00 00 00 00 00 00 00 00 00 00 00 00 00   ................
0050  00 00 00 00 00 00 00 00 00 00 00                  ...........

0000  1b 00 f8 0b f2 85 ff ff ff ff 00 00 00 00 09 00   ................
0010  01 01 00 03 00 81 01 40 00 00 00 30 30 30 31 50   .......@...0001P
0020  4c 45 4e 4f 4d 30 30 30 30 30 31 30 30 30 30 30   LENOM00000100000
0030  30 30 31 44 41 53 41 4e 30 30 30 32 30 31 31 30   001DASAN00020110
0040  38 31 37 30 30 30 30 30 30 30 30 30 30 30 30 30   8170000000000000
0050  30 30 30 30 30 30 30 30 30 30 30                  00000000000

0000  1b 00 70 ec f9 85 ff ff ff ff 00 00 00 00 09 00   ..p.............
0010  00 01 00 03 00 01 01 40 00 00 00 8a 00 00 00 00   .......@........
0020  00 00 00 00 00 00 00 00 00 00 00 00 00 00 00 00   ................
0030  00 00 00 00 00 00 00 00 00 00 00 00 00 00 00 00   ................
0040  00 00 00 00 00 00 00 00 00 00 00 00 00 00 00 00   ................
0050  00 00 00 00 00 00 00 00 00 00 00                  ...........

0000  1b 00 70 ec f9 85 ff ff ff ff 00 00 00 00 09 00   ..p.............
0010  00 01 00 03 00 01 01 40 00 00 00 8a 00 00 00 00   .......@........
0020  00 00 00 00 00 00 00 00 00 00 00 00 00 00 00 00   ................
0030  00 00 00 00 00 00 00 00 00 00 00 00 00 00 00 00   ................
0040  00 00 00 00 00 00 00 00 00 00 00 00 00 00 00 00   ................
0050  00 00 00 00 00 00 00 00 00 00 00                  ...........

0000  1b 00 88 5a ed 85 ff ff ff ff 00 00 00 00 09 00   ...Z............
0010  01 01 00 03 00 81 01 40 00 00 00 30 30 30 31 50   .......@...0001P
0020  4c 45 4e 4f 4d 30 30 30 30 30 31 30 30 30 30 30   LENOM00000100000
0030  30 30 31 44 41 53 41 4e 30 30 30 32 30 31 31 30   001DASAN00020110
0040  38 31 37 30 30 30 30 30 30 30 30 30 30 30 30 30   8170000000000000
0050  30 30 30 30 30 30 30 30 30 30 30                  00000000000

0000  1b 00 f8 0b f2 85 ff ff ff ff 00 00 00 00 09 00   ................
0010  01 01 00 03 00 81 01 40 00 00 00 30 30 30 31 50   .......@...0001P
0020  4c 45 4e 4f 4d 30 30 30 30 30 31 30 30 30 30 30   LENOM00000100000
0030  30 30 31 44 41 53 41 4e 30 30 30 32 30 31 31 30   001DASAN00020110
0040  38 31 37 30 30 30 30 30 30 30 30 30 30 30 30 30   8170000000000000
0050  30 30 30 30 30 30 30 30 30 30 30                  00000000000

0000  1b 00 c0 f3 fc 85 ff ff ff ff 00 00 00 00 09 00   ................
0010  00 01 00 03 00 01 01 40 00 00 00 00 00 00 00 00   .......@........
0020  01 00 80 00 00 00 00 00 00 00 00 00 00 00 00 00   ................
0030  00 00 00 00 00 00 00 00 00 00 00 00 00 00 00 00   ................
0040  00 00 00 00 00 00 00 00 00 00 00 00 00 00 00 00   ................
0050  00 00 00 00 00 00 00 00 00 00 00                  ...........

0000  1b 00 88 5a ed 85 ff ff ff ff 00 00 00 00 09 00   ...Z............
0010  01 01 00 03 00 81 01 40 00 00 00 30 30 30 31 50   .......@...0001P
0020  4c 45 4e 4f 4d 30 30 30 30 30 31 30 30 30 30 30   LENOM00000100000
0030  30 30 31 44 41 53 41 4e 30 30 30 32 30 31 31 30   001DASAN00020110
0040  38 31 37 30 30 30 30 30 30 30 30 30 30 30 30 30   8170000000000000
0050  30 30 30 30 30 30 30 30 30 30 30                  00000000000

0000  1b 00 38 2c 08 86 ff ff ff ff 00 00 00 00 09 00   ..8,............
0010  00 01 00 03 00 01 01 40 00 00 00 8a 00 00 00 00   .......@........
0020  00 00 00 00 00 00 00 00 00 00 00 00 00 00 00 00   ................
0030  00 00 00 00 00 00 00 00 00 00 00 00 00 00 00 00   ................
0040  00 00 00 00 00 00 00 00 00 00 00 00 00 00 00 00   ................
0050  00 00 00 00 00 00 00 00 00 00 00                  ...........

0000  1b 00 38 2c 08 86 ff ff ff ff 00 00 00 00 09 00   ..8,............
0010  00 01 00 03 00 01 01 40 00 00 00 8a 00 00 00 00   .......@........
0020  00 00 00 00 00 00 00 00 00 00 00 00 00 00 00 00   ................
0030  00 00 00 00 00 00 00 00 00 00 00 00 00 00 00 00   ................
0040  00 00 00 00 00 00 00 00 00 00 00 00 00 00 00 00   ................
0050  00 00 00 00 00 00 00 00 00 00 00                  ...........

0000  1b 00 f8 0b f2 85 ff ff ff ff 00 00 00 00 09 00   ................
0010  01 01 00 03 00 81 01 40 00 00 00 30 30 30 31 50   .......@...0001P
0020  4c 45 4e 4f 4d 30 30 30 30 30 31 30 30 30 30 30   LENOM00000100000
0030  30 30 31 44 41 53 41 4e 30 30 30 32 30 31 31 30   001DASAN00020110
0040  38 31 37 30 30 30 30 30 30 30 30 30 30 30 30 30   8170000000000000
0050  30 30 30 30 30 30 30 30 30 30 30                  00000000000

0000  1b 00 88 5a ed 85 ff ff ff ff 00 00 00 00 09 00   ...Z............
0010  01 01 00 03 00 81 01 40 00 00 00 30 30 30 31 50   .......@...0001P
0020  4c 45 4e 4f 4d 30 30 30 30 30 31 30 30 30 30 30   LENOM00000100000
0030  30 30 31 44 41 53 41 4e 30 30 30 32 30 31 31 30   001DASAN00020110
0040  38 31 37 30 30 30 30 30 30 30 30 30 30 30 30 30   8170000000000000
0050  30 30 30 30 30 30 30 30 30 30 30                  00000000000

0000  1b 00 80 f6 f2 85 ff ff ff ff 00 00 00 00 09 00   ................
0010  00 01 00 03 00 01 01 40 00 00 00 8a 00 00 00 00   .......@........
0020  00 00 00 00 00 00 00 00 00 00 00 00 00 00 00 00   ................
0030  00 00 00 00 00 00 00 00 00 00 00 00 00 00 00 00   ................
0040  00 00 00 00 00 00 00 00 00 00 00 00 00 00 00 00   ................
0050  00 00 00 00 00 00 00 00 00 00 00                  ...........

0000  1b 00 80 f6 f2 85 ff ff ff ff 00 00 00 00 09 00   ................
0010  00 01 00 03 00 01 01 40 00 00 00 8a 00 00 00 00   .......@........
0020  00 00 00 00 00 00 00 00 00 00 00 00 00 00 00 00   ................
0030  00 00 00 00 00 00 00 00 00 00 00 00 00 00 00 00   ................
0040  00 00 00 00 00 00 00 00 00 00 00 00 00 00 00 00   ................
0050  00 00 00 00 00 00 00 00 00 00 00                  ...........

0000  1b 00 f8 0b f2 85 ff ff ff ff 00 00 00 00 09 00   ................
0010  01 01 00 03 00 81 01 40 00 00 00 30 30 30 31 50   .......@...0001P
0020  4c 45 4e 4f 4d 30 30 30 30 30 31 30 30 30 30 30   LENOM00000100000
0030  30 30 31 44 41 53 41 4e 30 30 30 32 30 31 31 30   001DASAN00020110
0040  38 31 37 30 30 30 30 30 30 30 30 30 30 30 30 30   8170000000000000
0050  30 30 30 30 30 30 30 30 30 30 30                  00000000000

0000  1b 00 88 5a ed 85 ff ff ff ff 00 00 00 00 09 00   ...Z............
0010  01 01 00 03 00 81 01 40 00 00 00 30 30 30 31 50   .......@...0001P
0020  4c 45 4e 4f 4d 30 30 30 30 30 31 30 30 30 30 30   LENOM00000100000
0030  30 30 31 44 41 53 41 4e 30 30 30 32 30 31 31 30   001DASAN00020110
0040  38 31 37 30 30 30 30 30 30 30 30 30 30 30 30 30   8170000000000000
0050  30 30 30 30 30 30 30 30 30 30 30                  00000000000

